<svg width="10" height="18" viewBox="0 0 10 18" fill="none" xmlns="http://www.w3.org/2000/svg">
<path d="M0.64563 0.83844C2.53819 2.57089 7.24468 6.87925 9.36136 8.81686L0.64563 16.7953" stroke="#121212" stroke-width="0.7"/>
</svg>
