<svg width="20" height="20" viewBox="0 0 20 20" fill="none" xmlns="http://www.w3.org/2000/svg">
<path d="M10.0543 7.61363V8.61362H11.0543H16.2123C16.9422 8.61362 17.5594 8.87794 17.9237 9.37694L17.9726 9.44401L18.032 9.50208C18.3447 9.80805 18.5471 10.3914 18.4619 11.1029L17.5069 16.4761L17.5051 16.4859L17.5036 16.4957C17.3374 17.5528 16.4221 18.3506 15.3727 18.3506H6.05664V10.1855C6.08686 10.1093 6.12033 10.0194 6.15533 9.92242C6.24652 9.6699 6.36725 9.31668 6.5056 8.90227C6.78314 8.07097 7.14078 6.96586 7.49342 5.86464C7.84636 4.76252 8.19542 3.66077 8.45618 2.83478C8.58658 2.42172 8.69494 2.07749 8.77071 1.83647L8.85244 1.5763C9.33506 1.6009 9.59686 1.71591 9.73666 1.83805C9.86743 1.95229 10.0543 2.21597 10.0543 2.91885V7.61363ZM8.65525 1.3839C8.51537 1.34005 8.29206 1.27005 7.93553 1.15831L8.65525 1.38389L8.84597 1.44366C8.84596 1.44368 8.84595 1.44369 8.84594 1.4437C8.81312 1.4334 8.7557 1.41539 8.65525 1.3839Z" stroke="#00A57F" stroke-width="2"/>
<path d="M1.25848 18.3506V10.961H1.65756V18.3506H1.25848Z" stroke="#00A57F" stroke-width="2"/>
</svg>
