<svg width="22" height="18" viewBox="0 0 22 18" fill="none" xmlns="http://www.w3.org/2000/svg">
<rect x="0.643066" y="2.69176" width="20.4983" height="13.4638" fill="white"/>
<path d="M20.0383 0.976028H1.82632C0.820111 0.976028 0.00512695 1.79101 0.00512695 2.79722V15.5456C0.00512695 16.5518 0.820111 17.3668 1.82632 17.3668H20.0383C21.0445 17.3668 21.8503 16.5518 21.8503 15.5456L21.8595 2.79722C21.8595 1.79101 21.0445 0.976028 20.0383 0.976028ZM7.2899 3.70782C8.79694 3.70782 10.0217 4.93257 10.0217 6.43961C10.0217 7.9512 8.79694 9.1714 7.2899 9.1714C5.78286 9.1714 4.55811 7.9512 4.55811 6.43961C4.55811 4.93257 5.78286 3.70782 7.2899 3.70782ZM12.7535 14.635H1.82632V13.7244C1.82632 11.9032 5.46871 10.9015 7.2899 10.9015C9.1111 10.9015 12.7535 11.9032 12.7535 13.7244V14.635ZM16.2593 10.9926H17.7527L19.1277 12.8138L17.311 14.6304C16.1227 13.738 15.2349 12.4678 14.8251 10.9926C14.6657 10.4098 14.5747 9.80427 14.5747 9.1714C14.5747 8.53854 14.6657 7.93299 14.8296 7.35021C15.2349 5.87504 16.1227 4.60476 17.3156 3.71237L19.1277 5.52901L17.7527 7.35021H16.2593C16.059 7.91933 15.9406 8.53398 15.9406 9.1714C15.9406 9.80882 16.0544 10.4235 16.2593 10.9926Z" fill="#00A57F"/>
</svg>
