<svg version="1.1" id="Layer_1" xmlns="http://www.w3.org/2000/svg" xmlns:xlink="http://www.w3.org/1999/xlink" x="0px" y="0px"
	 viewBox="0 0 512 512" style="enable-background:new 0 0 512 512;" xml:space="preserve">
<style type="text/css">
	.st0{fill:#FFFFFF;stroke:#000000;stroke-miterlimit:10;}
	.st1{fill:none;stroke:#000000;stroke-width:31;stroke-linecap:round;stroke-linejoin:round;stroke-miterlimit:10;}
	.st2{fill:none;stroke:#000000;stroke-width:25;stroke-linecap:round;stroke-linejoin:round;stroke-miterlimit:10;}
</style>
<rect x="0.1" class="st0" width="512" height="512"/>
<g>
	<path class="st1" d="M466.1,495H45.9c-16.8,0-30.4-14.7-30.4-32.9V48.4c0-18.2,13.6-32.9,30.4-32.9H466c16.8,0,30.4,14.7,30.4,32.9
		v413.7C496.5,480.3,482.9,495,466.1,495z"/>
	<line class="st2" x1="217.6" y1="94.9" x2="430.5" y2="94.9"/>
	<path class="st1" d="M466,495H46c-16.8,0-30.4-14.7-30.4-32.9V177.7h480.9v284.4C496.5,480.3,482.8,495,466,495z"/>
	<ellipse cx="102.5" cy="94.9" rx="40.7" ry="44"/>
</g>
</svg>
