{
    "posts": [
        {
            "id": "1",
            "type": "post",
            "description": "მეგობრებო გაცნობებთ რომ ხვალ ჩვენს ახალ კლიენტებთან გვექნბეა შეხვედრა და იმედია ყველა მზადაა, რადგან საკმაოდ დიდ თანხას იხდიან ჩვენი სერვისისთვის, თუ რომელიმე თქვენგანი არ არის მზად დამიკავშირდით და რამეს მოვახერხებთ, და @ლევანი იცოდე რომ პრეზენტაცია ფლეშკაზე მაქვს და თუ გინდა რომ გამოგიზავნო მომწერე და დრაივის ლინკს გამოგიგზავნი. წატმატებები ყველას მადლობა!",
            "question": "მაქვს და თუ გინდა რომ გამოგიზავნო მომწერე და დრაივის ლინკს გამოგიგზავნი. წატმატებები ყველას მადლობა!",
            "answers": {
                "type": "sigle",
                "answers":[
                {
                    "text": "კი",
                    "votes": 5
                },
                {
                    "text": "არა",
                    "votes": 6
                },
                {
                    "text": "არ ვიცი",
                    "votes": 7
                }
            ]},
            "startAndEndDate":{
                "start": 545,
                "end": 42
            },
            "location": "garajis ukan",
            "poster_name": "სახელი სახელაშვილი 1",
            "poster_image_name": "profile.png",
            "poster_departments": "developer",
            "time_after_posted": "2",
            "time_posted": "12:20pm",
            "data_posted": "15-03-2019",
            "marked_groups": [
                "მენეჯერთა პორტალი",
                "საკრედიტო განყოფილება",
                "მარკეტინგის დეპარტამენტი"
            ],
            "marked_users": [
                "სამდრო კვარაცხელია",
                "საბა ტორიკაშვილი",
                "ბესო ტაბატაძე"
            ],
            "marked_departments": [
                "developers departments",
                "businness departments"
            ],
            "likes": {
                "sad": 2,
                "happy": 5,
                "neutral": 0,
                "love": 15,
                "amazed": 2
            },
            "comments": [
                {
                    "name": "სახელი სახელაშვილი",
                    "image_name": "profile.png",
                    "department": "designer",
                    "time_after_posted": "2",
                    "time_posted": "12:20pm",
                    "data_posted": "15-03-2019",
                    "text": "ეს არის ტოპ კომენტი",
                    "likes": 10,
                    "isTop": true
                },
                {
                    "name": "სახელი სახელაშვილი",
                    "image_name": "profile.png",
                    "department": "designer",
                    "time_after_posted": "2",
                    "time_posted": "12:20pm",
                    "data_posted": "15-03-2019",
                    "text": "მეგობრებო გაცნობებთ რომ ხვალ ჩვენს ახალ კლიენტებთან გვექნბეა შეხვედრა და იმედია ყველა მზადაა, რადგან საკმაოდ დიდ თანხას იხდიან ჩვენი სერვისისთვის, თუ რომელიმე თქვენგანი არ არის მზად დამიკავშირდით და რამეს",
                    "likes": 1,
                    "isTop": false
                },
                {
                    "name": "სახელი სახელაშვილი",
                    "image_name": "profile.png",
                    "department": "designer",
                    "time_after_posted": "2",
                    "time_posted": "12:20pm",
                    "data_posted": "15-03-2019",
                    "text": "მეგობრებო გაცნობებთ რომ ხვალ ჩვენს ახალ კლიენტებთან გვექნბეა შეხვედრა და იმედია ყველა მზადაა, რადგან საკმაოდ დიდ თანხას იხდიან ჩვენი სერვისისთვის, თუ რომელიმე თქვენგანი არ არის მზად დამიკავშირდით და რამეს",
                    "likes": 5,
                    "isTop": false
                }
            ]
        },
        {
            "id": "1",
            "type": "post",
            "description": "მეგობრებო გაცნობებთ რომ ხვალ ჩვენს ახალ კლიენტებთან გვექნბეა შეხვედრა და იმედია ყველა მზადაა, რადგან საკმაოდ დიდ თანხას იხდიან ჩვენი სერვისისთვის, თუ რომელიმე თქვენგანი არ არის მზად დამიკავშირდით და რამეს მოვახერხებთ, და @ლევანი იცოდე რომ პრეზენტაცია ფლეშკაზე მაქვს და თუ გინდა რომ გამოგიზავნო მომწერე და დრაივის ლინკს გამოგიგზავნი. წატმატებები ყველას მადლობა!",
            "question": "მაქვს და თუ გინდა რომ გამოგიზავნო მომწერე და დრაივის ლინკს გამოგიგზავნი. წატმატებები ყველას მადლობა!",
            "answers": {
                "type": "sigle",
                "answers":[
                {
                    "text": "კი",
                    "votes": 5
                },
                {
                    "text": "არა",
                    "votes": 6
                },
                {
                    "text": "არ ვიცი",
                    "votes": 7
                }
            ]},
            "poster_name": "სახელი სახელაშვილი 2",
            "poster_image_name": "profile.png",
            "poster_departments": "developer",
            "time_after_posted": "2",
            "time_posted": "12:20pm",
            "data_posted": "15-03-2019",
            "marked_groups": [
                "მენეჯერთა პორტალი",
                "საკრედიტო განყოფილება",
                "მარკეტინგის დეპარტამენტი"
            ],
            "marked_users": [
                "სამდრო კვარაცხელია",
                "საბა ტორიკაშვილი",
                "ბესო ტაბატაძე"
            ],
            "marked_departments": [
                "developers departments",
                "businness departments"
            ],
            "likes": {
                "sad": 2,
                "happy": 5,
                "neutral": 0,
                "love": 15,
                "amazed": 2
            },
            "comments": [
                {
                    "name": "სახელი სახელაშვილი",
                    "image_name": "profile.png",
                    "department": "designer",
                    "time_after_posted": "2",
                    "time_posted": "12:20pm",
                    "data_posted": "15-03-2019",
                    "text": "ეს არის ტოპ კომენტი",
                    "likes": 10,
                    "isTop": true
                },
                {
                    "name": "სახელი სახელაშვილი",
                    "image_name": "profile.png",
                    "department": "designer",
                    "time_after_posted": "2",
                    "time_posted": "12:20pm",
                    "data_posted": "15-03-2019",
                    "text": "მეგობრებო გაცნობებთ რომ ხვალ ჩვენს ახალ კლიენტებთან გვექნბეა შეხვედრა და იმედია ყველა მზადაა, რადგან საკმაოდ დიდ თანხას იხდიან ჩვენი სერვისისთვის, თუ რომელიმე თქვენგანი არ არის მზად დამიკავშირდით და რამეს",
                    "likes": 1,
                    "isTop": false
                },
                {
                    "name": "სახელი სახელაშვილი",
                    "image_name": "profile.png",
                    "department": "designer",
                    "time_after_posted": "2",
                    "time_posted": "12:20pm",
                    "data_posted": "15-03-2019",
                    "text": "მეგობრებო გაცნობებთ რომ ხვალ ჩვენს ახალ კლიენტებთან გვექნბეა შეხვედრა და იმედია ყველა მზადაა, რადგან საკმაოდ დიდ თანხას იხდიან ჩვენი სერვისისთვის, თუ რომელიმე თქვენგანი არ არის მზად დამიკავშირდით და რამეს",
                    "likes": 5,
                    "isTop": false
                }
            ]
        },
        {
            "id": "1",
            "type": "poll",
            "description": "შეკითხვის აღწერა",
            "question": "მაქვს და თუ გინდა რომ გამოგიზავნო მომწერე და დრაივის ლინკს გამოგიგზავნი. წატმატებები ყველას მადლობა!",
            "answers": {
                "type": "checkbox",
                "answers":[
                {
                    "text": "კი",
                    "votes": 50
                },
                {
                    "text": "არა",
                    "votes": 40
                },
                {
                    "text": "არ ვიცი",
                    "votes": 10
                }
            ]},
            "poster_name": "სახელი სახელაშვილი 2",
            "poster_image_name": "profile.png",
            "poster_departments": "developer",
            "time_after_posted": "2",
            "time_posted": "12:20pm",
            "data_posted": "15-03-2019",
            "marked_groups": [
                "მენეჯერთა პორტალი",
                "საკრედიტო განყოფილება",
                "მარკეტინგის დეპარტამენტი"
            ],
            "marked_users": [
                "სამდრო კვარაცხელია",
                "საბა ტორიკაშვილი",
                "ბესო ტაბატაძე"
            ],
            "marked_departments": [
                "developers departments",
                "businness departments"
            ],
            "likes": {
                "sad": 2,
                "happy": 5,
                "neutral": 0,
                "love": 15,
                "amazed": 2
            },
            "comments": [
                {
                    "name": "სახელი სახელაშვილი",
                    "image_name": "profile.png",
                    "department": "designer",
                    "time_after_posted": "2",
                    "time_posted": "12:20pm",
                    "data_posted": "15-03-2019",
                    "text": "ეს არის ტოპ კომენტი",
                    "likes": 70,
                    "isTop": true
                },
                {
                    "name": "სახელი სახელაშვილი",
                    "image_name": "profile.png",
                    "department": "designer",
                    "time_after_posted": "2",
                    "time_posted": "12:20pm",
                    "data_posted": "15-03-2019",
                    "text": "მეგობრებო გაცნობებთ რომ ხვალ ჩვენს ახალ კლიენტებთან გვექნბეა შეხვედრა და იმედია ყველა მზადაა, რადგან საკმაოდ დიდ თანხას იხდიან ჩვენი სერვისისთვის, თუ რომელიმე თქვენგანი არ არის მზად დამიკავშირდით და რამეს",
                    "likes": 1,
                    "isTop": false
                },
                {
                    "name": "სახელი სახელაშვილი",
                    "image_name": "profile.png",
                    "department": "designer",
                    "time_after_posted": "2",
                    "time_posted": "12:20pm",
                    "data_posted": "15-03-2019",
                    "text": "მეგობრებო გაცნობებთ რომ ხვალ ჩვენს ახალ კლიენტებთან გვექნბეა შეხვედრა და იმედია ყველა მზადაა, რადგან საკმაოდ დიდ თანხას იხდიან ჩვენი სერვისისთვის, თუ რომელიმე თქვენგანი არ არის მზად დამიკავშირდით და რამეს",
                    "likes": 5,
                    "isTop": false
                }
            ]
        },
        {
            "id": "1",
            "type": "poll",
            "description": "შეკითხვის აღწერა",
            "question": "მაქვს და თუ გინდა რომ გამოგიზავნო მომწერე და დრაივის ლინკს გამოგიგზავნი. წატმატებები ყველას მადლობა!",
            "answers": {
                "type": "radio",
                "answers":[
                {
                    "text": "კი",
                    "votes": 50
                },
                {
                    "text": "არა",
                    "votes": 50
                },
                {
                    "text": "არ ვიცი",
                    "votes": 0
                }
            ]},
            "poster_name": "სახელი სახელაშვილი 2",
            "poster_image_name": "profile.png",
            "poster_departments": "developer",
            "time_after_posted": "2",
            "time_posted": "12:20pm",
            "data_posted": "15-03-2019",
            "marked_groups": [
                "მენეჯერთა პორტალი",
                "საკრედიტო განყოფილება",
                "მარკეტინგის დეპარტამენტი"
            ],
            "marked_users": [
                "სამდრო კვარაცხელია",
                "საბა ტორიკაშვილი",
                "ბესო ტაბატაძე"
            ],
            "marked_departments": [
                "developers departments",
                "businness departments"
            ],
            "likes": {
                "sad": 2,
                "happy": 5,
                "neutral": 0,
                "love": 15,
                "amazed": 2
            },
            "comments": [
                {
                    "name": "სახელი სახელაშვილი",
                    "image_name": "profile.png",
                    "department": "designer",
                    "time_after_posted": "2",
                    "time_posted": "12:20pm",
                    "data_posted": "15-03-2019",
                    "text": "ეს არის ტოპ კომენტი",
                    "likes": 500,
                    "isTop": true
                },
                {
                    "name": "სახელი სახელაშვილი",
                    "image_name": "profile.png",
                    "department": "designer",
                    "time_after_posted": "2",
                    "time_posted": "12:20pm",
                    "data_posted": "15-03-2019",
                    "text": "მეგობრებო გაცნობებთ რომ ხვალ ჩვენს ახალ კლიენტებთან გვექნბეა შეხვედრა და იმედია ყველა მზადაა, რადგან საკმაოდ დიდ თანხას იხდიან ჩვენი სერვისისთვის, თუ რომელიმე თქვენგანი არ არის მზად დამიკავშირდით და რამეს",
                    "likes": 1,
                    "isTop": false
                },
                {
                    "name": "სახელი სახელაშვილი",
                    "image_name": "profile.png",
                    "department": "designer",
                    "time_after_posted": "2",
                    "time_posted": "12:20pm",
                    "data_posted": "15-03-2019",
                    "text": "მეგობრებო გაცნობებთ რომ ხვალ ჩვენს ახალ კლიენტებთან გვექნბეა შეხვედრა და იმედია ყველა მზადაა, რადგან საკმაოდ დიდ თანხას იხდიან ჩვენი სერვისისთვის, თუ რომელიმე თქვენგანი არ არის მზად დამიკავშირდით და რამეს",
                    "likes": 5,
                    "isTop": false
                }
            ]
        }
    ]
}