<svg width="26" height="25" viewBox="0 0 26 25" fill="none" xmlns="http://www.w3.org/2000/svg">
<rect x="0.929993" y="0.974701" width="4.99016" height="4.94546" fill="#00A57F"/>
<rect x="10.6513" y="0.974701" width="4.99016" height="4.94546" fill="#00A57F"/>
<rect x="20.3725" y="0.974701" width="4.99016" height="4.94546" fill="#00A57F"/>
<rect x="0.929993" y="10.2817" width="4.99016" height="4.94546" fill="#00A57F"/>
<rect x="10.6513" y="10.2817" width="4.99016" height="4.94546" fill="#00A57F"/>
<rect x="20.3725" y="10.2817" width="4.99016" height="4.94546" fill="#00A57F"/>
<rect x="0.929993" y="19.5888" width="4.99016" height="4.94546" fill="#00A57F"/>
<rect x="10.6513" y="19.5888" width="4.99016" height="4.94546" fill="#00A57F"/>
<rect x="20.3725" y="19.5888" width="4.99016" height="4.94546" fill="#00A57F"/>
</svg>
